Google,Accuracy,Time
1-1,74.6966,35.5658
1-2,79.6419,34.4961
1-3,71.6351,34.1521
1-4,81.7241,33.9474
1-5,75.4071,35.339
1 Average,76.62096,34.70008
,,
2-1,64.38,38.4385
2-2,61.1272,39.9578
2-3,63.0645,38.702
2-4,65.3858,39.3821
2-5,68.0227,39.3115
2 Average,64.39604,39.15838
3-1,56.2425,46.2391
3-2,57.3406,44.8534
3-3,57.1474,44.6497
3-4,55.4274,45.3093
3-5,57.4425,44.9922
3 Average,56.72008,45.20874
4-1,65.533,39.2426
4-2,66.9971,35.8288
4-3,65.8136,35.5006
4-4,62.7817,35.4404
4-5,61.0432,35.7436
4 Average,64.43372,36.3512