Date,Open,High,Low,Close,Volume,Adj Close,0.0
2007-01-03,118.00,123.25,115.00,122.41,56458000,12.24,2.0
2007-01-04,121.11,126.64,119.64,126.00,47495000,12.60,2.0
2007-01-05,124.37,124.94,121.98,122.50,25083000,12.25,2.0
2007-01-08,122.63,124.63,121.55,121.95,16354000,12.19,2.0
2007-01-09,122.94,125.02,121.65,123.72,27376000,12.37,2.0
2007-01-10,122.75,130.20,122.31,128.01,37846000,12.80,2.0
2007-01-11,129.79,134.10,129.18,131.18,39548000,13.12,1.0
2007-01-12,131.99,134.00,124.02,124.70,42936000,12.47,1.0
2007-01-16,127.22,129.86,122.84,127.44,49541000,12.74,1.0
2007-01-17,126.26,128.10,124.00,125.49,21641000,12.55,1.0
2007-01-18,124.65,125.75,120.00,121.38,27136000,12.14,1.0
2007-01-19,121.11,123.41,120.88,121.40,18122000,12.14,1.0
2007-01-22,123.50,123.88,121.11,122.40,17170000,12.24,1.0
2007-01-23,123.74,126.90,122.51,124.55,24681000,12.45,1.0
2007-01-24,126.75,127.39,124.20,124.90,18345000,12.49,1.0
2007-01-25,125.73,127.00,122.79,123.74,17433000,12.37,1.0
2007-01-26,124.00,125.00,120.59,123.40,16168000,12.34,1.0
2007-01-29,124.02,124.65,122.16,123.40,8526000,12.34,1.0
2007-01-30,123.61,124.55,123.06,124.07,7820000,12.41,1.0
2007-01-31,122.82,126.85,122.65,124.94,15469000,12.49,1.0
2007-02-01,126.50,126.50,118.81,119.94,25876000,11.99,1.0
2007-02-02,120.50,121.66,119.00,119.61,15317000,11.96,1.0
2007-02-05,119.90,120.13,114.85,115.99,20239000,11.60,1.0
2007-02-06,115.10,117.84,114.59,116.95,17210000,11.69,2.0
2007-02-07,118.40,121.32,117.68,118.40,17698000,11.84,1.0
2007-02-08,118.81,120.60,117.56,119.78,12194000,11.98,1.0
2007-02-09,120.07,121.32,116.33,117.49,12370000,11.75,1.0
2007-02-12,116.78,117.92,115.31,116.75,9944000,11.68,1.0
2007-02-13,117.50,117.70,111.87,113.30,31624000,11.33,1.0
2007-02-14,114.51,116.45,111.80,115.00,46961000,11.50,2.0
2007-02-15,102.86,107.79,100.80,106.18,147033000,10.62,2.0
2007-02-16,104.79,106.13,104.51,105.15,26751000,10.52,2.0
2007-02-20,105.15,108.21,103.87,106.32,22514000,10.63,2.0
2007-02-21,105.99,107.55,104.97,107.01,13307000,10.70,2.0
2007-02-22,107.60,109.08,106.56,107.41,17491000,10.74,2.0
2007-02-23,107.54,110.76,107.41,110.37,17688000,11.04,2.0
2007-02-26,111.00,112.97,109.53,111.71,18498000,11.17,1.0
2007-02-27,107.31,109.22,102.76,104.76,33968000,10.48,1.0
2007-02-28,105.50,107.88,104.00,106.70,27239000,10.67,2.0
2007-03-01,104.99,107.49,102.33,106.22,25394000,10.62,1.0
2007-03-02,105.09,106.80,101.54,102.12,19364000,10.21,1.0
2007-03-05,99.87,103.00,99.06,99.67,22159000,9.97,1.0
2007-03-06,102.99,104.89,102.32,104.28,22364000,10.43,1.0
2007-03-07,104.60,105.16,102.54,103.47,15006000,10.35,1.0
2007-03-08,104.50,105.63,104.00,105.19,17620000,10.52,1.0
2007-03-09,106.00,106.23,101.04,102.44,28316000,10.24,1.0
2007-03-12,102.22,103.10,100.52,102.54,17882000,10.25,1.0
2007-03-13,101.85,102.00,98.71,98.91,23457000,9.89,1.0
2007-03-14,98.53,98.53,93.44,97.37,39621000,9.74,1.0
2007-03-15,96.04,98.35,95.52,96.21,10970000,9.62,2.0
2007-03-16,96.15,96.91,94.60,95.75,12142000,9.57,2.0
2007-03-19,97.00,97.00,95.49,96.57,12269000,9.66,2.0
2007-03-20,96.16,97.50,96.16,96.80,9043000,9.68,2.0
2007-03-21,97.46,101.05,96.55,100.97,27981000,10.10,2.0
2007-03-22,101.65,103.74,100.62,102.60,19427000,10.26,2.0
2007-03-23,101.94,102.89,101.36,102.59,10166000,10.26,1.0
2007-03-26,102.76,103.13,99.47,101.26,9867000,10.13,1.0
2007-03-27,101.19,103.10,100.26,101.26,6520000,10.13,1.0
2007-03-28,100.35,101.33,99.08,99.25,10781000,9.93,1.0
2007-03-29,100.00,100.37,96.61,97.12,12662000,9.71,1.0
2007-03-30,97.50,97.74,95.35,96.55,11236000,9.65,1.0
2007-04-02,96.50,97.45,92.80,93.52,18110000,9.35,1.0
2007-04-03,94.45,96.78,94.45,95.24,13658000,9.52,2.0
2007-04-04,94.64,96.57,94.40,94.60,10280000,9.46,2.0
2007-04-05,94.80,95.14,94.25,94.58,12155000,9.46,2.0
2007-04-09,95.15,95.67,93.80,94.80,5927000,9.48,2.0
2007-04-10,94.50,98.05,94.30,97.85,12809000,9.78,2.0
2007-04-11,98.00,100.87,97.31,98.61,22115000,9.86,2.0
2007-04-12,97.86,98.45,96.17,97.73,10032000,9.77,1.0
2007-04-13,97.73,97.96,96.30,97.37,7142000,9.74,2.0
2007-04-16,98.35,99.75,97.60,98.72,9699000,9.87,2.0
2007-04-17,99.26,100.43,98.23,99.28,9119000,9.93,1.0
2007-04-18,98.50,99.65,97.52,99.07,7751000,9.91,2.0
2007-04-19,97.58,99.09,96.52,96.94,7865000,9.69,2.0
2007-04-20,99.53,100.50,98.05,99.60,15191000,9.96,2.0
2007-04-23,100.59,101.37,98.84,99.56,9030000,9.96,2.0
2007-04-24,98.85,104.75,98.45,103.50,23220000,10.35,2.0
2007-04-25,104.94,105.24,103.00,104.68,18641000,10.47,1.0
2007-04-26,105.78,111.49,105.30,109.37,48748000,10.94,1.0
2007-04-27,130.42,132.80,123.38,124.57,144363000,12.46,1.0
2007-04-30,124.09,127.26,121.52,121.58,33672000,12.16,1.0
2007-05-01,121.87,123.30,120.25,121.35,24944000,12.14,2.0
2007-05-02,120.52,123.86,120.52,122.97,13002000,12.30,2.0
2007-05-03,123.19,127.17,122.49,125.32,23599000,12.53,2.0
2007-05-04,127.21,129.67,126.01,126.96,18882000,12.70,1.0
2007-05-07,127.50,129.47,125.63,125.93,12802000,12.59,2.0
2007-05-08,124.42,125.52,122.25,125.24,16208000,12.52,2.0
2007-05-09,124.25,128.35,123.98,127.08,16458000,12.71,2.0
2007-05-10,126.70,128.89,124.72,124.88,16966000,12.49,1.0
2007-05-11,126.38,128.24,125.25,128.12,12697000,12.81,2.0
2007-05-14,129.64,134.75,129.64,131.99,41178000,13.20,2.0
2007-05-15,131.95,133.18,128.80,129.03,20814000,12.90,1.0
2007-05-16,129.69,130.89,127.61,129.75,16023000,12.98,2.0
2007-05-17,129.97,131.52,129.01,130.89,15292000,13.09,2.0
2007-05-18,131.89,132.48,130.41,131.05,11941000,13.10,1.0
2007-05-21,132.52,136.00,132.52,134.66,25999000,13.47,1.0
2007-05-22,136.00,136.49,134.27,135.14,15631000,13.51,1.0
2007-05-23,135.24,138.11,130.60,130.70,28297000,13.07,1.0
2007-05-24,131.80,133.45,127.21,128.30,31744000,12.83,2.0
2007-05-25,130.00,131.89,128.88,130.71,15105000,13.07,2.0
2007-05-29,131.23,133.85,131.08,133.20,19099000,13.32,2.0
2007-05-30,130.30,137.50,129.65,135.69,24664000,13.57,2.0
2007-05-31,137.73,141.61,137.14,140.49,33222000,14.05,2.0
2007-06-01,142.50,143.30,139.66,140.31,17578000,14.03,2.0
2007-06-04,139.00,142.81,138.00,141.71,17323000,14.17,2.0
2007-06-05,141.20,144.98,141.03,144.64,22112000,14.46,1.0
2007-06-06,143.26,144.10,140.02,141.54,21838000,14.15,1.0
2007-06-07,141.90,143.01,136.26,137.25,19865000,13.73,1.0
2007-06-08,136.69,137.25,134.67,137.03,17447000,13.70,2.0
2007-06-11,136.00,138.86,135.00,137.10,9600000,13.71,2.0
2007-06-12,136.20,137.82,135.05,135.64,9828000,13.56,2.0
2007-06-13,136.75,138.55,135.82,138.24,9989000,13.82,2.0
2007-06-14,138.80,140.69,138.80,140.15,11143000,14.02,2.0
2007-06-15,141.75,143.16,140.94,143.07,17419000,14.31,2.0
2007-06-18,144.00,150.33,143.45,149.05,28037000,14.90,2.0
2007-06-19,149.30,155.09,148.72,154.30,34677000,15.43,2.0
2007-06-20,157.78,158.25,151.61,152.40,34693000,15.24,1.0
2007-06-21,153.12,154.16,149.23,153.95,23753000,15.40,2.0
2007-06-22,154.00,157.00,153.00,156.48,18526000,15.65,2.0
2007-06-25,157.63,158.00,153.02,154.06,22387000,15.41,1.0
2007-06-26,156.91,157.74,153.50,155.22,16902000,15.52,2.0
2007-06-27,154.00,157.45,153.26,157.14,13687000,15.71,2.0
2007-06-28,157.45,162.75,157.00,162.19,24871000,16.22,2.0
2007-06-29,165.00,172.00,163.62,167.98,39436000,16.80,2.0
