Starting with random values in the given domains...
GENERATION :  1 
RMSE : 	 0.526802 
RMSE : 	 0.5032383 
RMSE : 	 0.5003131 
RMSE : 	 0.4997968 
RMSE : 	 0.4994847 
GENERATION :  2 
GENERATION :  3 
RMSE : 	 0.4987347 
GENERATION :  4 
RMSE : 	 0.4983886 
GENERATION :  5 
RMSE : 	 0.4980992 
RMSE : 	 0.4962761 
RMSE : 	 0.4908454 
GENERATION :  6 
GENERATION :  7 
GENERATION :  8 
GENERATION :  9 
RMSE : 	 0.4858883 
GENERATION :  10 
GENERATION :  11 
GENERATION :  12 
GENERATION :  13 
GENERATION :  14 
GENERATION :  15 
GENERATION :  16 
GENERATION :  17 
GENERATION :  18 
RMSE : 	 0.483168 
RMSE : 	 0.4831487 
GENERATION :  19 
RMSE : 	 0.4798766 
GENERATION :  20 
GENERATION :  21 
RMSE : 	 0.4782696 
GENERATION :  22 
GENERATION :  23 
GENERATION :  24 
GENERATION :  25 
GENERATION :  26 
GENERATION :  27 
GENERATION :  28 
GENERATION :  29 
GENERATION :  30 
GENERATION :  31 
GENERATION :  32 
RMSE : 	 0.4780678 
GENERATION :  33 
GENERATION :  34 
GENERATION :  35 
GENERATION :  36 
RMSE : 	 0.4760945 
GENERATION :  37 
GENERATION :  38 
GENERATION :  39 
GENERATION :  40 
GENERATION :  41 
RMSE : 	 0.4756765 
GENERATION :  42 
RMSE : 	 0.4753515 
GENERATION :  43 
GENERATION :  44 
GENERATION :  45 
GENERATION :  46 
RMSE : 	 0.4740947 
GENERATION :  47 
GENERATION :  48 
GENERATION :  49 
RMSE : 	 0.4737972 
GENERATION :  50 
GENERATION :  51 
RMSE : 	 0.4736797 
GENERATION :  52 
RMSE : 	 0.4735987 
GENERATION :  53 
RMSE : 	 0.4725826 
GENERATION :  54 
GENERATION :  55 
GENERATION :  56 
GENERATION :  57 
RMSE : 	 0.4721085 
GENERATION :  58 
GENERATION :  59 
GENERATION :  60 
RMSE : 	 0.4716904 
GENERATION :  61 
RMSE : 	 0.4716607 
GENERATION :  62 
GENERATION :  63 
GENERATION :  64 
GENERATION :  65 
RMSE : 	 0.4714252 
RMSE : 	 0.4713609 
GENERATION :  66 
RMSE : 	 0.4711857 
GENERATION :  67 
GENERATION :  68 
GENERATION :  69 
RMSE : 	 0.4697453 
GENERATION :  70 
GENERATION :  71 
GENERATION :  72 
RMSE : 	 0.4687478 
GENERATION :  73 
RMSE : 	 0.4683512 
GENERATION :  74 
RMSE : 	 0.4665621 
GENERATION :  75 
GENERATION :  76 
GENERATION :  77 
GENERATION :  78 
GENERATION :  79 
GENERATION :  80 
GENERATION :  81 
GENERATION :  82 
RMSE : 	 0.4665404 
GENERATION :  83 
RMSE : 	 0.4663876 
GENERATION :  84 
GENERATION :  85 
RMSE : 	 0.4650843 
GENERATION :  86 
GENERATION :  87 
GENERATION :  88 
GENERATION :  89 
GENERATION :  90 
GENERATION :  91 
GENERATION :  92 
RMSE : 	 0.4650736 
GENERATION :  93 
GENERATION :  94 
GENERATION :  95 
GENERATION :  96 
RMSE : 	 0.4650693 
RMSE : 	 0.4645887 
GENERATION :  97 
GENERATION :  98 
GENERATION :  99 
GENERATION :  100 
GENERATION :  101 
GENERATION :  102 
RMSE : 	 0.4644767 
GENERATION :  103 
GENERATION :  104 
RMSE : 	 0.4643781 
GENERATION :  105 
RMSE : 	 0.463965 
GENERATION :  106 
RMSE : 	 0.4639583 
RMSE : 	 0.4629437 
GENERATION :  107 
GENERATION :  108 
GENERATION :  109 
GENERATION :  110 
GENERATION :  111 
RMSE : 	 0.4618349 
GENERATION :  112 
RMSE : 	 0.4617117 
GENERATION :  113 
GENERATION :  114 
GENERATION :  115 
GENERATION :  116 
RMSE : 	 0.4615422 
GENERATION :  117 
GENERATION :  118 
RMSE : 	 0.461422 
GENERATION :  119 
GENERATION :  120 
GENERATION :  121 
GENERATION :  122 
GENERATION :  123 
GENERATION :  124 
RMSE : 	 0.4613514 
GENERATION :  125 
GENERATION :  126 
GENERATION :  127 
GENERATION :  128 
GENERATION :  129 
GENERATION :  130 
RMSE : 	 0.461097 
GENERATION :  131 
GENERATION :  132 
RMSE : 	 0.4609783 
GENERATION :  133 
GENERATION :  134 
GENERATION :  135 
RMSE : 	 0.4609614 
GENERATION :  136 
GENERATION :  137 
RMSE : 	 0.4609544 
GENERATION :  138 
GENERATION :  139 
GENERATION :  140 
GENERATION :  141 
RMSE : 	 0.4608999 
GENERATION :  142 
GENERATION :  143 
GENERATION :  144 
GENERATION :  145 
RMSE : 	 0.4606156 
GENERATION :  146 
GENERATION :  147 
RMSE : 	 0.460391 
GENERATION :  148 
GENERATION :  149 
GENERATION :  150 
GENERATION :  151 
GENERATION :  152 
GENERATION :  153 
GENERATION :  154 
RMSE : 	 0.4601053 
GENERATION :  155 
RMSE : 	 0.4600596 
GENERATION :  156 
RMSE : 	 0.4599377 
GENERATION :  157 
GENERATION :  158 
GENERATION :  159 
RMSE : 	 0.4599315 
GENERATION :  160 
RMSE : 	 0.4595595 
GENERATION :  161 
RMSE : 	 0.4595413 
GENERATION :  162 
GENERATION :  163 
GENERATION :  164 
GENERATION :  165 
GENERATION :  166 
GENERATION :  167 
RMSE : 	 0.4593656 
GENERATION :  168 
RMSE : 	 0.4592575 
GENERATION :  169 
RMSE : 	 0.4591572 
GENERATION :  170 
GENERATION :  171 
GENERATION :  172 
GENERATION :  173 
GENERATION :  174 
GENERATION :  175 
RMSE : 	 0.4590161 
GENERATION :  176 
GENERATION :  177 
GENERATION :  178 
GENERATION :  179 
GENERATION :  180 
GENERATION :  181 
GENERATION :  182 
RMSE : 	 0.4562028 
GENERATION :  183 
GENERATION :  184 
GENERATION :  185 
GENERATION :  186 
GENERATION :  187 
GENERATION :  188 
GENERATION :  189 
GENERATION :  190 
GENERATION :  191 
GENERATION :  192 
GENERATION :  193 
GENERATION :  194 
GENERATION :  195 
RMSE : 	 0.4559982 
GENERATION :  196 
GENERATION :  197 
GENERATION :  198 
GENERATION :  199 
GENERATION :  200 
RMSE : 	 0.4551061 
FUZZY SYSTEM :
RULE (1) : Close is MF_2 AND Open is MF_1 AND Adj.Close is MF_1 AND Open is MF_1 THEN X0.0 is MF_2 
RULE (2) : Open is MF_2 AND Close is MF_1 AND Open is MF_1 AND Close is MF_1 THEN X0.0 is MF_1 
RULE (3) : Volume is MF_1 AND Volume is MF_1 AND Low is MF_1 AND Volume is MF_2 THEN X0.0 is MF_2 
DEFAULT RULE (4) : X0.0 is MF_2 

INPUT VARIABLES : 
Close : (100.687233600118, 112.151874203412)
Open : (110.578045253875, 124.291304986319)
Adj.Close : (10.0733521375572, 15.5750266965479)
Volume : (32532688.3913879, 90487405.1734963)
Low : (155.17049218392, 160.652557834899)

OUTPUT VARIABLES
X0.0 : (1.012776, 1.686979)
