Starting with random values in the given domains...
GENERATION :  1 
RMSE : 	 0.5967571 
RMSE : 	 0.5425696 
RMSE : 	 0.5076037 
RMSE : 	 0.5001507 
RMSE : 	 0.4993837 
RMSE : 	 0.4979397 
GENERATION :  2 
RMSE : 	 0.4974109 
GENERATION :  3 
RMSE : 	 0.4951205 
GENERATION :  4 
RMSE : 	 0.4950078 
GENERATION :  5 
RMSE : 	 0.4923422 
GENERATION :  6 
RMSE : 	 0.4796833 
GENERATION :  7 
GENERATION :  8 
GENERATION :  9 
GENERATION :  10 
GENERATION :  11 
GENERATION :  12 
GENERATION :  13 
GENERATION :  14 
GENERATION :  15 
GENERATION :  16 
GENERATION :  17 
GENERATION :  18 
GENERATION :  19 
GENERATION :  20 
GENERATION :  21 
RMSE : 	 0.4766736 
GENERATION :  22 
GENERATION :  23 
GENERATION :  24 
GENERATION :  25 
GENERATION :  26 
GENERATION :  27 
GENERATION :  28 
GENERATION :  29 
GENERATION :  30 
GENERATION :  31 
GENERATION :  32 
GENERATION :  33 
GENERATION :  34 
RMSE : 	 0.4764565 
GENERATION :  35 
GENERATION :  36 
GENERATION :  37 
GENERATION :  38 
GENERATION :  39 
GENERATION :  40 
GENERATION :  41 
GENERATION :  42 
RMSE : 	 0.475795 
GENERATION :  43 
GENERATION :  44 
GENERATION :  45 
GENERATION :  46 
RMSE : 	 0.4749679 
GENERATION :  47 
GENERATION :  48 
GENERATION :  49 
GENERATION :  50 
GENERATION :  51 
GENERATION :  52 
GENERATION :  53 
GENERATION :  54 
GENERATION :  55 
RMSE : 	 0.4740101 
GENERATION :  56 
GENERATION :  57 
RMSE : 	 0.4735974 
GENERATION :  58 
GENERATION :  59 
GENERATION :  60 
GENERATION :  61 
GENERATION :  62 
RMSE : 	 0.4735573 
GENERATION :  63 
RMSE : 	 0.4735541 
GENERATION :  64 
RMSE : 	 0.4733831 
GENERATION :  65 
GENERATION :  66 
GENERATION :  67 
GENERATION :  68 
GENERATION :  69 
GENERATION :  70 
GENERATION :  71 
RMSE : 	 0.4730246 
GENERATION :  72 
GENERATION :  73 
GENERATION :  74 
RMSE : 	 0.4725062 
GENERATION :  75 
GENERATION :  76 
GENERATION :  77 
GENERATION :  78 
RMSE : 	 0.4724632 
GENERATION :  79 
GENERATION :  80 
RMSE : 	 0.4721396 
GENERATION :  81 
GENERATION :  82 
GENERATION :  83 
GENERATION :  84 
GENERATION :  85 
GENERATION :  86 
GENERATION :  87 
RMSE : 	 0.4715396 
GENERATION :  88 
GENERATION :  89 
GENERATION :  90 
GENERATION :  91 
RMSE : 	 0.4712705 
GENERATION :  92 
GENERATION :  93 
GENERATION :  94 
RMSE : 	 0.4711988 
GENERATION :  95 
GENERATION :  96 
GENERATION :  97 
GENERATION :  98 
GENERATION :  99 
GENERATION :  100 
GENERATION :  101 
RMSE : 	 0.4709214 
GENERATION :  102 
RMSE : 	 0.4706608 
GENERATION :  103 
GENERATION :  104 
GENERATION :  105 
GENERATION :  106 
GENERATION :  107 
GENERATION :  108 
GENERATION :  109 
GENERATION :  110 
GENERATION :  111 
GENERATION :  112 
GENERATION :  113 
RMSE : 	 0.4694946 
GENERATION :  114 
RMSE : 	 0.4693656 
GENERATION :  115 
GENERATION :  116 
GENERATION :  117 
RMSE : 	 0.4692673 
RMSE : 	 0.4692461 
GENERATION :  118 
RMSE : 	 0.4689721 
GENERATION :  119 
RMSE : 	 0.4666325 
GENERATION :  120 
GENERATION :  121 
GENERATION :  122 
GENERATION :  123 
GENERATION :  124 
GENERATION :  125 
GENERATION :  126 
RMSE : 	 0.4664464 
GENERATION :  127 
GENERATION :  128 
GENERATION :  129 
RMSE : 	 0.4650401 
GENERATION :  130 
GENERATION :  131 
RMSE : 	 0.4631291 
GENERATION :  132 
GENERATION :  133 
GENERATION :  134 
GENERATION :  135 
GENERATION :  136 
RMSE : 	 0.4629235 
GENERATION :  137 
GENERATION :  138 
GENERATION :  139 
GENERATION :  140 
GENERATION :  141 
RMSE : 	 0.4629021 
GENERATION :  142 
RMSE : 	 0.4597923 
GENERATION :  143 
GENERATION :  144 
GENERATION :  145 
GENERATION :  146 
GENERATION :  147 
GENERATION :  148 
GENERATION :  149 
GENERATION :  150 
GENERATION :  151 
GENERATION :  152 
GENERATION :  153 
RMSE : 	 0.4597618 
RMSE : 	 0.4595793 
GENERATION :  154 
GENERATION :  155 
GENERATION :  156 
RMSE : 	 0.4592343 
GENERATION :  157 
GENERATION :  158 
RMSE : 	 0.4589209 
GENERATION :  159 
GENERATION :  160 
RMSE : 	 0.4588334 
GENERATION :  161 
GENERATION :  162 
RMSE : 	 0.4584454 
GENERATION :  163 
GENERATION :  164 
RMSE : 	 0.4556711 
GENERATION :  165 
GENERATION :  166 
GENERATION :  167 
GENERATION :  168 
GENERATION :  169 
GENERATION :  170 
GENERATION :  171 
GENERATION :  172 
GENERATION :  173 
RMSE : 	 0.4513056 
GENERATION :  174 
GENERATION :  175 
GENERATION :  176 
GENERATION :  177 
RMSE : 	 0.4510141 
GENERATION :  178 
GENERATION :  179 
GENERATION :  180 
GENERATION :  181 
GENERATION :  182 
RMSE : 	 0.4505519 
GENERATION :  183 
GENERATION :  184 
GENERATION :  185 
RMSE : 	 0.4500548 
GENERATION :  186 
GENERATION :  187 
GENERATION :  188 
GENERATION :  189 
GENERATION :  190 
GENERATION :  191 
GENERATION :  192 
RMSE : 	 0.4492911 
GENERATION :  193 
GENERATION :  194 
RMSE : 	 0.4488446 
GENERATION :  195 
RMSE : 	 0.4488254 
GENERATION :  196 
GENERATION :  197 
GENERATION :  198 
GENERATION :  199 
GENERATION :  200 
FUZZY SYSTEM :
RULE (1) : Open is MF_2 AND Adj.Close is MF_1 AND Volume is MF_1 AND Open is MF_1 THEN X0.0 is MF_1 
RULE (2) : Low is MF_1 AND Open is MF_1 AND Open is MF_1 AND Adj.Close is MF_1 THEN X0.0 is MF_2 
RULE (3) : Close is MF_2 AND Open is MF_1 AND Adj.Close is MF_2 AND Volume is MF_1 THEN X0.0 is MF_2 
DEFAULT RULE (4) : X0.0 is MF_1 

INPUT VARIABLES : 
Open : (105.645235277466, 106.824625619415)
Adj.Close : (115.252276221155, 117.308206544919)
Volume : (7143893.7433403, 13318995.5842357)
Low : (122.014371007653, 159.143531262279)
Close : (123.028875931765, 160.077827893572)

OUTPUT VARIABLES
X0.0 : (1.286192, 1.976985)
