Starting with random values in the given domains...
GENERATION :  1 
RMSE : 	 0.5105111 
RMSE : 	 0.5033785 
RMSE : 	 0.5023255 
RMSE : 	 0.4959094 
RMSE : 	 0.4908563 
GENERATION :  2 
GENERATION :  3 
GENERATION :  4 
RMSE : 	 0.4888834 
GENERATION :  5 
RMSE : 	 0.4887015 
GENERATION :  6 
RMSE : 	 0.4870406 
GENERATION :  7 
GENERATION :  8 
GENERATION :  9 
GENERATION :  10 
RMSE : 	 0.4868163 
RMSE : 	 0.4860692 
GENERATION :  11 
GENERATION :  12 
RMSE : 	 0.480647 
GENERATION :  13 
GENERATION :  14 
GENERATION :  15 
GENERATION :  16 
GENERATION :  17 
GENERATION :  18 
RMSE : 	 0.4753699 
GENERATION :  19 
RMSE : 	 0.4700572 
GENERATION :  20 
RMSE : 	 0.4668594 
GENERATION :  21 
GENERATION :  22 
GENERATION :  23 
GENERATION :  24 
GENERATION :  25 
GENERATION :  26 
RMSE : 	 0.4633722 
GENERATION :  27 
GENERATION :  28 
GENERATION :  29 
GENERATION :  30 
GENERATION :  31 
RMSE : 	 0.4609032 
GENERATION :  32 
GENERATION :  33 
RMSE : 	 0.4606354 
RMSE : 	 0.4602718 
GENERATION :  34 
RMSE : 	 0.4577371 
GENERATION :  35 
GENERATION :  36 
RMSE : 	 0.4573627 
GENERATION :  37 
GENERATION :  38 
GENERATION :  39 
GENERATION :  40 
RMSE : 	 0.4572194 
GENERATION :  41 
GENERATION :  42 
GENERATION :  43 
RMSE : 	 0.4567143 
GENERATION :  44 
RMSE : 	 0.4531425 
GENERATION :  45 
GENERATION :  46 
GENERATION :  47 
GENERATION :  48 
GENERATION :  49 
GENERATION :  50 
RMSE : 	 0.451454 
GENERATION :  51 
RMSE : 	 0.4512192 
GENERATION :  52 
GENERATION :  53 
GENERATION :  54 
RMSE : 	 0.4505149 
GENERATION :  55 
GENERATION :  56 
GENERATION :  57 
GENERATION :  58 
RMSE : 	 0.4498813 
RMSE : 	 0.4425743 
GENERATION :  59 
GENERATION :  60 
GENERATION :  61 
RMSE : 	 0.4425153 
GENERATION :  62 
GENERATION :  63 
GENERATION :  64 
GENERATION :  65 
GENERATION :  66 
GENERATION :  67 
GENERATION :  68 
GENERATION :  69 
RMSE : 	 0.4422772 
RMSE : 	 0.4422184 
GENERATION :  70 
RMSE : 	 0.4420882 
GENERATION :  71 
RMSE : 	 0.4416438 
RMSE : 	 0.4408679 
GENERATION :  72 
RMSE : 	 0.4408086 
GENERATION :  73 
GENERATION :  74 
RMSE : 	 0.4405798 
RMSE : 	 0.4403403 
GENERATION :  75 
RMSE : 	 0.4398158 
GENERATION :  76 
GENERATION :  77 
GENERATION :  78 
GENERATION :  79 
GENERATION :  80 
RMSE : 	 0.4381321 
GENERATION :  81 
GENERATION :  82 
GENERATION :  83 
GENERATION :  84 
GENERATION :  85 
GENERATION :  86 
RMSE : 	 0.4376715 
RMSE : 	 0.4374834 
RMSE : 	 0.4359744 
GENERATION :  87 
GENERATION :  88 
RMSE : 	 0.4356967 
GENERATION :  89 
GENERATION :  90 
RMSE : 	 0.4354373 
GENERATION :  91 
GENERATION :  92 
RMSE : 	 0.4350362 
GENERATION :  93 
GENERATION :  94 
GENERATION :  95 
GENERATION :  96 
GENERATION :  97 
GENERATION :  98 
RMSE : 	 0.4341435 
GENERATION :  99 
GENERATION :  100 
GENERATION :  101 
RMSE : 	 0.432846 
GENERATION :  102 
GENERATION :  103 
GENERATION :  104 
GENERATION :  105 
RMSE : 	 0.4313367 
GENERATION :  106 
GENERATION :  107 
GENERATION :  108 
GENERATION :  109 
GENERATION :  110 
GENERATION :  111 
GENERATION :  112 
RMSE : 	 0.4305567 
GENERATION :  113 
GENERATION :  114 
RMSE : 	 0.4293282 
GENERATION :  115 
GENERATION :  116 
GENERATION :  117 
RMSE : 	 0.4281666 
GENERATION :  118 
GENERATION :  119 
GENERATION :  120 
GENERATION :  121 
GENERATION :  122 
GENERATION :  123 
GENERATION :  124 
RMSE : 	 0.4280529 
RMSE : 	 0.4273867 
GENERATION :  125 
GENERATION :  126 
RMSE : 	 0.4260783 
GENERATION :  127 
RMSE : 	 0.4238887 
GENERATION :  128 
GENERATION :  129 
GENERATION :  130 
GENERATION :  131 
RMSE : 	 0.4231547 
GENERATION :  132 
GENERATION :  133 
GENERATION :  134 
GENERATION :  135 
GENERATION :  136 
GENERATION :  137 
RMSE : 	 0.4211047 
GENERATION :  138 
RMSE : 	 0.4209499 
GENERATION :  139 
GENERATION :  140 
RMSE : 	 0.4205673 
GENERATION :  141 
RMSE : 	 0.4198379 
GENERATION :  142 
GENERATION :  143 
RMSE : 	 0.4188891 
GENERATION :  144 
GENERATION :  145 
GENERATION :  146 
GENERATION :  147 
GENERATION :  148 
RMSE : 	 0.4185838 
GENERATION :  149 
RMSE : 	 0.4183701 
GENERATION :  150 
GENERATION :  151 
RMSE : 	 0.4150121 
GENERATION :  152 
GENERATION :  153 
GENERATION :  154 
GENERATION :  155 
GENERATION :  156 
GENERATION :  157 
GENERATION :  158 
GENERATION :  159 
GENERATION :  160 
RMSE : 	 0.4149831 
GENERATION :  161 
GENERATION :  162 
GENERATION :  163 
GENERATION :  164 
RMSE : 	 0.4147165 
GENERATION :  165 
RMSE : 	 0.4134071 
GENERATION :  166 
GENERATION :  167 
GENERATION :  168 
GENERATION :  169 
GENERATION :  170 
RMSE : 	 0.4133109 
GENERATION :  171 
GENERATION :  172 
GENERATION :  173 
GENERATION :  174 
GENERATION :  175 
GENERATION :  176 
RMSE : 	 0.413105 
GENERATION :  177 
GENERATION :  178 
GENERATION :  179 
GENERATION :  180 
GENERATION :  181 
RMSE : 	 0.4126494 
GENERATION :  182 
GENERATION :  183 
GENERATION :  184 
GENERATION :  185 
GENERATION :  186 
GENERATION :  187 
GENERATION :  188 
GENERATION :  189 
GENERATION :  190 
GENERATION :  191 
GENERATION :  192 
GENERATION :  193 
GENERATION :  194 
GENERATION :  195 
GENERATION :  196 
GENERATION :  197 
GENERATION :  198 
GENERATION :  199 
GENERATION :  200 
FUZZY SYSTEM :
RULE (1) : Open is MF_1 AND Low is MF_1 AND Open is MF_1 AND Open is MF_1 THEN X0.0 is MF_2 
RULE (2) : Open is MF_1 AND Open is MF_1 AND Close is MF_2 AND Close is MF_1 THEN X0.0 is MF_2 
RULE (3) : Open is MF_1 AND Open is MF_1 AND Open is MF_1 AND Close is MF_2 THEN X0.0 is MF_2 
DEFAULT RULE (4) : X0.0 is MF_1 

INPUT VARIABLES : 
Open : (465.477461472852, 470.588209129914)
Low : (460.597405241411, 499.213300530715)
Close : (463.00529344995, 465.851448937762)

OUTPUT VARIABLES
X0.0 : (1.187482, 1.920913)
