Starting with random values in the given domains...
GENERATION :  1 
RMSE : 	 0.6647427 
RMSE : 	 0.5774283 
RMSE : 	 0.510509 
RMSE : 	 0.5104511 
RMSE : 	 0.5047562 
RMSE : 	 0.4998692 
RMSE : 	 0.4971556 
RMSE : 	 0.4965971 
GENERATION :  2 
GENERATION :  3 
GENERATION :  4 
RMSE : 	 0.4939245 
RMSE : 	 0.4925252 
GENERATION :  5 
RMSE : 	 0.4902021 
GENERATION :  6 
GENERATION :  7 
RMSE : 	 0.4845225 
GENERATION :  8 
GENERATION :  9 
RMSE : 	 0.4832011 
GENERATION :  10 
GENERATION :  11 
GENERATION :  12 
GENERATION :  13 
GENERATION :  14 
GENERATION :  15 
GENERATION :  16 
RMSE : 	 0.4829234 
RMSE : 	 0.4812973 
GENERATION :  17 
RMSE : 	 0.4718886 
GENERATION :  18 
GENERATION :  19 
RMSE : 	 0.4698375 
GENERATION :  20 
RMSE : 	 0.4697296 
GENERATION :  21 
GENERATION :  22 
GENERATION :  23 
GENERATION :  24 
GENERATION :  25 
RMSE : 	 0.4689483 
GENERATION :  26 
GENERATION :  27 
GENERATION :  28 
GENERATION :  29 
RMSE : 	 0.4665444 
GENERATION :  30 
GENERATION :  31 
GENERATION :  32 
GENERATION :  33 
RMSE : 	 0.4658895 
GENERATION :  34 
RMSE : 	 0.4654424 
GENERATION :  35 
RMSE : 	 0.4652179 
GENERATION :  36 
RMSE : 	 0.4643549 
GENERATION :  37 
GENERATION :  38 
GENERATION :  39 
RMSE : 	 0.4633527 
GENERATION :  40 
GENERATION :  41 
RMSE : 	 0.4606848 
GENERATION :  42 
GENERATION :  43 
GENERATION :  44 
GENERATION :  45 
RMSE : 	 0.4591685 
GENERATION :  46 
GENERATION :  47 
GENERATION :  48 
GENERATION :  49 
GENERATION :  50 
RMSE : 	 0.4580578 
GENERATION :  51 
RMSE : 	 0.4573417 
GENERATION :  52 
GENERATION :  53 
RMSE : 	 0.4569694 
GENERATION :  54 
GENERATION :  55 
RMSE : 	 0.4564758 
GENERATION :  56 
GENERATION :  57 
GENERATION :  58 
GENERATION :  59 
GENERATION :  60 
RMSE : 	 0.4564723 
GENERATION :  61 
GENERATION :  62 
GENERATION :  63 
GENERATION :  64 
RMSE : 	 0.4560467 
GENERATION :  65 
GENERATION :  66 
GENERATION :  67 
RMSE : 	 0.4557024 
GENERATION :  68 
RMSE : 	 0.4556977 
GENERATION :  69 
GENERATION :  70 
GENERATION :  71 
RMSE : 	 0.4555826 
RMSE : 	 0.4546372 
GENERATION :  72 
GENERATION :  73 
GENERATION :  74 
GENERATION :  75 
RMSE : 	 0.4538285 
GENERATION :  76 
GENERATION :  77 
GENERATION :  78 
GENERATION :  79 
GENERATION :  80 
GENERATION :  81 
GENERATION :  82 
GENERATION :  83 
GENERATION :  84 
GENERATION :  85 
RMSE : 	 0.45342 
GENERATION :  86 
GENERATION :  87 
GENERATION :  88 
GENERATION :  89 
GENERATION :  90 
RMSE : 	 0.4533025 
GENERATION :  91 
GENERATION :  92 
GENERATION :  93 
RMSE : 	 0.4532689 
GENERATION :  94 
GENERATION :  95 
RMSE : 	 0.4530783 
GENERATION :  96 
RMSE : 	 0.453035 
GENERATION :  97 
GENERATION :  98 
RMSE : 	 0.453012 
GENERATION :  99 
RMSE : 	 0.4526627 
GENERATION :  100 
GENERATION :  101 
RMSE : 	 0.4525378 
GENERATION :  102 
GENERATION :  103 
GENERATION :  104 
RMSE : 	 0.4520932 
GENERATION :  105 
GENERATION :  106 
GENERATION :  107 
RMSE : 	 0.4517019 
GENERATION :  108 
GENERATION :  109 
GENERATION :  110 
RMSE : 	 0.4501166 
GENERATION :  111 
GENERATION :  112 
GENERATION :  113 
RMSE : 	 0.4495652 
GENERATION :  114 
RMSE : 	 0.4493299 
GENERATION :  115 
GENERATION :  116 
GENERATION :  117 
RMSE : 	 0.449172 
GENERATION :  118 
GENERATION :  119 
RMSE : 	 0.4490933 
GENERATION :  120 
GENERATION :  121 
GENERATION :  122 
RMSE : 	 0.4470351 
GENERATION :  123 
GENERATION :  124 
RMSE : 	 0.4466058 
GENERATION :  125 
GENERATION :  126 
GENERATION :  127 
RMSE : 	 0.4464032 
GENERATION :  128 
GENERATION :  129 
RMSE : 	 0.4463676 
GENERATION :  130 
RMSE : 	 0.4448604 
GENERATION :  131 
GENERATION :  132 
RMSE : 	 0.4439097 
GENERATION :  133 
GENERATION :  134 
GENERATION :  135 
RMSE : 	 0.4438513 
GENERATION :  136 
RMSE : 	 0.4435417 
GENERATION :  137 
GENERATION :  138 
RMSE : 	 0.4424966 
GENERATION :  139 
GENERATION :  140 
GENERATION :  141 
GENERATION :  142 
GENERATION :  143 
GENERATION :  144 
GENERATION :  145 
GENERATION :  146 
RMSE : 	 0.4423275 
GENERATION :  147 
GENERATION :  148 
GENERATION :  149 
GENERATION :  150 
GENERATION :  151 
GENERATION :  152 
GENERATION :  153 
GENERATION :  154 
RMSE : 	 0.4417466 
RMSE : 	 0.4415192 
GENERATION :  155 
GENERATION :  156 
GENERATION :  157 
GENERATION :  158 
GENERATION :  159 
GENERATION :  160 
GENERATION :  161 
GENERATION :  162 
RMSE : 	 0.4406816 
GENERATION :  163 
GENERATION :  164 
GENERATION :  165 
GENERATION :  166 
GENERATION :  167 
GENERATION :  168 
GENERATION :  169 
GENERATION :  170 
GENERATION :  171 
GENERATION :  172 
GENERATION :  173 
GENERATION :  174 
GENERATION :  175 
RMSE : 	 0.4400986 
GENERATION :  176 
GENERATION :  177 
GENERATION :  178 
GENERATION :  179 
GENERATION :  180 
GENERATION :  181 
GENERATION :  182 
GENERATION :  183 
GENERATION :  184 
GENERATION :  185 
GENERATION :  186 
GENERATION :  187 
RMSE : 	 0.4399345 
GENERATION :  188 
GENERATION :  189 
GENERATION :  190 
RMSE : 	 0.4398264 
RMSE : 	 0.4386104 
GENERATION :  191 
GENERATION :  192 
GENERATION :  193 
GENERATION :  194 
GENERATION :  195 
GENERATION :  196 
RMSE : 	 0.4384458 
RMSE : 	 0.4373705 
GENERATION :  197 
GENERATION :  198 
GENERATION :  199 
RMSE : 	 0.4372671 
GENERATION :  200 
FUZZY SYSTEM :
RULE (1) : Adj.Close is MF_2 AND Open is MF_1 AND Low is MF_2 AND High is MF_2 THEN X0.0 is MF_2 
RULE (2) : Open is MF_1 AND Open is MF_2 AND Adj.Close is MF_1 AND High is MF_2 THEN X0.0 is MF_1 
RULE (3) : Adj.Close is MF_1 AND Adj.Close is MF_1 AND Adj.Close is MF_1 AND Open is MF_1 THEN X0.0 is MF_2 
DEFAULT RULE (4) : X0.0 is MF_1 

INPUT VARIABLES : 
Adj.Close : (32.5786351162777, 32.7204961499618)
Open : (37.2479398171068, 37.2864324673661)
Low : (31.7753870586306, 33.346411809721)
High : (33.3529109554878, 33.8230959484656)

OUTPUT VARIABLES
X0.0 : (1.343602, 1.856905)
