Starting with random values in the given domains...
GENERATION :  1 
RMSE : 	 0.4917833 
RMSE : 	 0.476547 
RMSE : 	 0.4489595 
RMSE : 	 0.442661 
RMSE : 	 0.4242484 
GENERATION :  2 
GENERATION :  3 
RMSE : 	 0.4208928 
GENERATION :  4 
GENERATION :  5 
RMSE : 	 0.4145153 
GENERATION :  6 
GENERATION :  7 
GENERATION :  8 
GENERATION :  9 
RMSE : 	 0.4142185 
GENERATION :  10 
GENERATION :  11 
GENERATION :  12 
RMSE : 	 0.4082914 
GENERATION :  13 
GENERATION :  14 
RMSE : 	 0.4042016 
GENERATION :  15 
GENERATION :  16 
GENERATION :  17 
GENERATION :  18 
RMSE : 	 0.403643 
GENERATION :  19 
GENERATION :  20 
GENERATION :  21 
GENERATION :  22 
GENERATION :  23 
GENERATION :  24 
GENERATION :  25 
RMSE : 	 0.3977562 
GENERATION :  26 
GENERATION :  27 
RMSE : 	 0.3970264 
GENERATION :  28 
GENERATION :  29 
GENERATION :  30 
GENERATION :  31 
GENERATION :  32 
RMSE : 	 0.393236 
RMSE : 	 0.3911255 
GENERATION :  33 
GENERATION :  34 
RMSE : 	 0.3833144 
GENERATION :  35 
GENERATION :  36 
GENERATION :  37 
GENERATION :  38 
GENERATION :  39 
RMSE : 	 0.3829236 
GENERATION :  40 
RMSE : 	 0.3781727 
GENERATION :  41 
GENERATION :  42 
GENERATION :  43 
GENERATION :  44 
GENERATION :  45 
GENERATION :  46 
RMSE : 	 0.3732091 
GENERATION :  47 
GENERATION :  48 
GENERATION :  49 
RMSE : 	 0.372823 
GENERATION :  50 
RMSE : 	 0.3702731 
GENERATION :  51 
GENERATION :  52 
RMSE : 	 0.3690969 
GENERATION :  53 
GENERATION :  54 
GENERATION :  55 
GENERATION :  56 
GENERATION :  57 
GENERATION :  58 
RMSE : 	 0.3682255 
GENERATION :  59 
GENERATION :  60 
GENERATION :  61 
GENERATION :  62 
GENERATION :  63 
RMSE : 	 0.3680976 
GENERATION :  64 
GENERATION :  65 
GENERATION :  66 
RMSE : 	 0.367381 
RMSE : 	 0.3655615 
RMSE : 	 0.3608158 
GENERATION :  67 
GENERATION :  68 
RMSE : 	 0.3605069 
RMSE : 	 0.3604143 
GENERATION :  69 
GENERATION :  70 
GENERATION :  71 
GENERATION :  72 
GENERATION :  73 
RMSE : 	 0.3603837 
GENERATION :  74 
RMSE : 	 0.3581284 
GENERATION :  75 
RMSE : 	 0.3547975 
GENERATION :  76 
GENERATION :  77 
GENERATION :  78 
GENERATION :  79 
GENERATION :  80 
GENERATION :  81 
GENERATION :  82 
GENERATION :  83 
GENERATION :  84 
GENERATION :  85 
RMSE : 	 0.3546118 
GENERATION :  86 
GENERATION :  87 
RMSE : 	 0.3535524 
GENERATION :  88 
GENERATION :  89 
GENERATION :  90 
RMSE : 	 0.3407602 
GENERATION :  91 
GENERATION :  92 
GENERATION :  93 
GENERATION :  94 
GENERATION :  95 
GENERATION :  96 
GENERATION :  97 
GENERATION :  98 
RMSE : 	 0.3407479 
GENERATION :  99 
GENERATION :  100 
GENERATION :  101 
RMSE : 	 0.3384154 
RMSE : 	 0.3359799 
GENERATION :  102 
GENERATION :  103 
RMSE : 	 0.3357313 
GENERATION :  104 
GENERATION :  105 
GENERATION :  106 
RMSE : 	 0.3329345 
GENERATION :  107 
GENERATION :  108 
GENERATION :  109 
GENERATION :  110 
GENERATION :  111 
GENERATION :  112 
GENERATION :  113 
GENERATION :  114 
GENERATION :  115 
GENERATION :  116 
GENERATION :  117 
RMSE : 	 0.3327716 
GENERATION :  118 
GENERATION :  119 
GENERATION :  120 
GENERATION :  121 
GENERATION :  122 
RMSE : 	 0.3317828 
GENERATION :  123 
RMSE : 	 0.3317355 
GENERATION :  124 
GENERATION :  125 
GENERATION :  126 
GENERATION :  127 
GENERATION :  128 
GENERATION :  129 
GENERATION :  130 
GENERATION :  131 
RMSE : 	 0.3308236 
GENERATION :  132 
GENERATION :  133 
GENERATION :  134 
RMSE : 	 0.3306778 
GENERATION :  135 
RMSE : 	 0.329739 
GENERATION :  136 
GENERATION :  137 
GENERATION :  138 
GENERATION :  139 
GENERATION :  140 
GENERATION :  141 
GENERATION :  142 
GENERATION :  143 
GENERATION :  144 
GENERATION :  145 
GENERATION :  146 
GENERATION :  147 
RMSE : 	 0.3287411 
GENERATION :  148 
GENERATION :  149 
GENERATION :  150 
GENERATION :  151 
GENERATION :  152 
GENERATION :  153 
GENERATION :  154 
RMSE : 	 0.3251327 
GENERATION :  155 
GENERATION :  156 
GENERATION :  157 
GENERATION :  158 
GENERATION :  159 
GENERATION :  160 
GENERATION :  161 
GENERATION :  162 
RMSE : 	 0.3250319 
GENERATION :  163 
GENERATION :  164 
GENERATION :  165 
GENERATION :  166 
RMSE : 	 0.3232822 
GENERATION :  167 
GENERATION :  168 
GENERATION :  169 
RMSE : 	 0.3180254 
GENERATION :  170 
GENERATION :  171 
GENERATION :  172 
RMSE : 	 0.3176993 
GENERATION :  173 
GENERATION :  174 
GENERATION :  175 
GENERATION :  176 
GENERATION :  177 
GENERATION :  178 
RMSE : 	 0.3174006 
GENERATION :  179 
GENERATION :  180 
GENERATION :  181 
RMSE : 	 0.3165848 
GENERATION :  182 
RMSE : 	 0.3126117 
GENERATION :  183 
GENERATION :  184 
GENERATION :  185 
GENERATION :  186 
GENERATION :  187 
GENERATION :  188 
GENERATION :  189 
GENERATION :  190 
GENERATION :  191 
RMSE : 	 0.3108492 
GENERATION :  192 
GENERATION :  193 
GENERATION :  194 
GENERATION :  195 
GENERATION :  196 
GENERATION :  197 
RMSE : 	 0.3102016 
GENERATION :  198 
GENERATION :  199 
GENERATION :  200 
RMSE : 	 0.3078923 
FUZZY SYSTEM :
RULE (1) : Open is MF_1 AND Adj.Close is MF_2 AND Close is MF_2 AND High is MF_1 THEN X0.0 is MF_2 
RULE (2) : Adj.Close is MF_2 AND Adj.Close is MF_2 AND Open is MF_1 AND Volume is MF_1 THEN X0.0 is MF_2 
RULE (3) : Volume is MF_2 AND Close is MF_2 AND Open is MF_1 AND High is MF_2 THEN X0.0 is MF_2 
DEFAULT RULE (4) : X0.0 is MF_1 

INPUT VARIABLES : 
Open : (25.2981680308282, 25.3039427410066)
Adj.Close : (19.5771791750751, 19.6772120857285)
Close : (25.0636806030478, 25.2532397136278)
High : (26.3961595777562, 26.607483356304)
Volume : (65138935.8181725, 79975156.2469425)

OUTPUT VARIABLES
X0.0 : (1.066293, 1.977123)
