Starting with random values in the given domains...
GENERATION :  1 
RMSE : 	 0.6174389 
RMSE : 	 0.513715 
RMSE : 	 0.5063721 
RMSE : 	 0.5032155 
RMSE : 	 0.5025205 
RMSE : 	 0.5014657 
RMSE : 	 0.4985482 
GENERATION :  2 
GENERATION :  3 
GENERATION :  4 
GENERATION :  5 
GENERATION :  6 
GENERATION :  7 
RMSE : 	 0.496808 
GENERATION :  8 
RMSE : 	 0.4958646 
GENERATION :  9 
GENERATION :  10 
GENERATION :  11 
RMSE : 	 0.4950719 
GENERATION :  12 
RMSE : 	 0.4942807 
GENERATION :  13 
RMSE : 	 0.494155 
GENERATION :  14 
RMSE : 	 0.4924994 
GENERATION :  15 
GENERATION :  16 
GENERATION :  17 
RMSE : 	 0.4924893 
GENERATION :  18 
RMSE : 	 0.4922743 
RMSE : 	 0.4897764 
GENERATION :  19 
GENERATION :  20 
RMSE : 	 0.4885356 
GENERATION :  21 
RMSE : 	 0.4847399 
GENERATION :  22 
GENERATION :  23 
GENERATION :  24 
GENERATION :  25 
GENERATION :  26 
GENERATION :  27 
GENERATION :  28 
GENERATION :  29 
GENERATION :  30 
RMSE : 	 0.4844463 
GENERATION :  31 
RMSE : 	 0.4844049 
GENERATION :  32 
GENERATION :  33 
RMSE : 	 0.4827911 
GENERATION :  34 
GENERATION :  35 
GENERATION :  36 
RMSE : 	 0.4822657 
GENERATION :  37 
RMSE : 	 0.4822477 
GENERATION :  38 
RMSE : 	 0.4794929 
GENERATION :  39 
GENERATION :  40 
RMSE : 	 0.4793587 
GENERATION :  41 
GENERATION :  42 
GENERATION :  43 
RMSE : 	 0.4780731 
GENERATION :  44 
GENERATION :  45 
GENERATION :  46 
RMSE : 	 0.4780419 
GENERATION :  47 
GENERATION :  48 
GENERATION :  49 
RMSE : 	 0.4755233 
GENERATION :  50 
GENERATION :  51 
GENERATION :  52 
RMSE : 	 0.4749194 
GENERATION :  53 
GENERATION :  54 
RMSE : 	 0.4745727 
GENERATION :  55 
GENERATION :  56 
GENERATION :  57 
RMSE : 	 0.4744893 
GENERATION :  58 
RMSE : 	 0.4741906 
GENERATION :  59 
RMSE : 	 0.4709499 
GENERATION :  60 
GENERATION :  61 
GENERATION :  62 
GENERATION :  63 
GENERATION :  64 
GENERATION :  65 
GENERATION :  66 
GENERATION :  67 
GENERATION :  68 
GENERATION :  69 
GENERATION :  70 
GENERATION :  71 
GENERATION :  72 
GENERATION :  73 
GENERATION :  74 
GENERATION :  75 
GENERATION :  76 
GENERATION :  77 
GENERATION :  78 
GENERATION :  79 
GENERATION :  80 
RMSE : 	 0.470476 
GENERATION :  81 
RMSE : 	 0.4697645 
GENERATION :  82 
GENERATION :  83 
GENERATION :  84 
GENERATION :  85 
GENERATION :  86 
GENERATION :  87 
GENERATION :  88 
GENERATION :  89 
RMSE : 	 0.4697409 
GENERATION :  90 
GENERATION :  91 
GENERATION :  92 
GENERATION :  93 
RMSE : 	 0.4691842 
GENERATION :  94 
RMSE : 	 0.4683358 
GENERATION :  95 
RMSE : 	 0.4682999 
GENERATION :  96 
GENERATION :  97 
GENERATION :  98 
RMSE : 	 0.467593 
GENERATION :  99 
GENERATION :  100 
GENERATION :  101 
GENERATION :  102 
RMSE : 	 0.4666331 
GENERATION :  103 
GENERATION :  104 
GENERATION :  105 
GENERATION :  106 
GENERATION :  107 
GENERATION :  108 
GENERATION :  109 
RMSE : 	 0.4664555 
GENERATION :  110 
GENERATION :  111 
RMSE : 	 0.4664232 
GENERATION :  112 
GENERATION :  113 
RMSE : 	 0.4662696 
GENERATION :  114 
GENERATION :  115 
RMSE : 	 0.4659683 
GENERATION :  116 
RMSE : 	 0.4657181 
RMSE : 	 0.4649862 
GENERATION :  117 
RMSE : 	 0.464724 
GENERATION :  118 
RMSE : 	 0.4646464 
GENERATION :  119 
GENERATION :  120 
GENERATION :  121 
GENERATION :  122 
RMSE : 	 0.4644964 
GENERATION :  123 
GENERATION :  124 
GENERATION :  125 
GENERATION :  126 
GENERATION :  127 
RMSE : 	 0.4642516 
RMSE : 	 0.4633639 
GENERATION :  128 
GENERATION :  129 
GENERATION :  130 
RMSE : 	 0.4632492 
GENERATION :  131 
GENERATION :  132 
RMSE : 	 0.4631355 
RMSE : 	 0.4630537 
GENERATION :  133 
RMSE : 	 0.4629261 
RMSE : 	 0.462764 
GENERATION :  134 
GENERATION :  135 
RMSE : 	 0.4620533 
GENERATION :  136 
RMSE : 	 0.4619173 
GENERATION :  137 
GENERATION :  138 
RMSE : 	 0.4616227 
GENERATION :  139 
GENERATION :  140 
GENERATION :  141 
GENERATION :  142 
GENERATION :  143 
RMSE : 	 0.4614149 
RMSE : 	 0.4613328 
GENERATION :  144 
RMSE : 	 0.4610206 
GENERATION :  145 
GENERATION :  146 
GENERATION :  147 
RMSE : 	 0.4606229 
GENERATION :  148 
GENERATION :  149 
RMSE : 	 0.4601736 
GENERATION :  150 
GENERATION :  151 
GENERATION :  152 
GENERATION :  153 
GENERATION :  154 
RMSE : 	 0.459506 
GENERATION :  155 
GENERATION :  156 
GENERATION :  157 
GENERATION :  158 
GENERATION :  159 
GENERATION :  160 
GENERATION :  161 
GENERATION :  162 
RMSE : 	 0.4575917 
GENERATION :  163 
GENERATION :  164 
GENERATION :  165 
GENERATION :  166 
GENERATION :  167 
GENERATION :  168 
GENERATION :  169 
GENERATION :  170 
RMSE : 	 0.4571888 
GENERATION :  171 
GENERATION :  172 
GENERATION :  173 
GENERATION :  174 
GENERATION :  175 
RMSE : 	 0.4571048 
GENERATION :  176 
RMSE : 	 0.4557157 
GENERATION :  177 
GENERATION :  178 
GENERATION :  179 
GENERATION :  180 
GENERATION :  181 
GENERATION :  182 
RMSE : 	 0.4552771 
GENERATION :  183 
GENERATION :  184 
GENERATION :  185 
GENERATION :  186 
RMSE : 	 0.4544775 
GENERATION :  187 
GENERATION :  188 
GENERATION :  189 
GENERATION :  190 
GENERATION :  191 
GENERATION :  192 
GENERATION :  193 
GENERATION :  194 
RMSE : 	 0.4537571 
GENERATION :  195 
GENERATION :  196 
GENERATION :  197 
GENERATION :  198 
GENERATION :  199 
GENERATION :  200 
RMSE : 	 0.4529141 
FUZZY SYSTEM :
RULE (1) : High is MF_2 AND Volume is MF_2 AND Adj.Close is MF_1 AND Open is MF_2 THEN X0.0 is MF_1 
RULE (2) : Low is MF_2 AND Open is MF_1 AND Open is MF_2 AND Adj.Close is MF_2 THEN X0.0 is MF_2 
RULE (3) : Adj.Close is MF_1 AND Close is MF_1 AND Volume is MF_2 AND Open is MF_2 THEN X0.0 is MF_1 
DEFAULT RULE (4) : X0.0 is MF_2 

INPUT VARIABLES : 
High : (23.5780116515513, 26.6734454780724)
Volume : (44012126.8837863, 60304063.0419224)
Adj.Close : (27.0100496181753, 27.2983954955963)
Open : (25.9304351190291, 26.4141137484275)
Low : (26.4300617656158, 29.3661358417198)
Close : (24.4504888910754, 26.9868066852074)

OUTPUT VARIABLES
X0.0 : (1.128534, 1.659389)
