Starting with random values in the given domains...
GENERATION :  1 
RMSE : 	 0.5245265 
RMSE : 	 0.5000325 
RMSE : 	 0.4995805 
RMSE : 	 0.4995307 
RMSE : 	 0.4994519 
RMSE : 	 0.4978198 
GENERATION :  2 
GENERATION :  3 
RMSE : 	 0.4963971 
GENERATION :  4 
GENERATION :  5 
GENERATION :  6 
GENERATION :  7 
GENERATION :  8 
GENERATION :  9 
GENERATION :  10 
GENERATION :  11 
RMSE : 	 0.4946652 
GENERATION :  12 
GENERATION :  13 
RMSE : 	 0.4942628 
GENERATION :  14 
GENERATION :  15 
GENERATION :  16 
GENERATION :  17 
GENERATION :  18 
RMSE : 	 0.4929243 
GENERATION :  19 
RMSE : 	 0.4929195 
GENERATION :  20 
GENERATION :  21 
GENERATION :  22 
GENERATION :  23 
GENERATION :  24 
GENERATION :  25 
GENERATION :  26 
RMSE : 	 0.4914446 
GENERATION :  27 
RMSE : 	 0.4910456 
GENERATION :  28 
RMSE : 	 0.490203 
GENERATION :  29 
GENERATION :  30 
RMSE : 	 0.4890196 
GENERATION :  31 
RMSE : 	 0.4888483 
GENERATION :  32 
GENERATION :  33 
GENERATION :  34 
GENERATION :  35 
RMSE : 	 0.4886859 
GENERATION :  36 
GENERATION :  37 
GENERATION :  38 
GENERATION :  39 
RMSE : 	 0.4857409 
GENERATION :  40 
GENERATION :  41 
RMSE : 	 0.4857111 
GENERATION :  42 
GENERATION :  43 
RMSE : 	 0.485626 
GENERATION :  44 
RMSE : 	 0.4856179 
GENERATION :  45 
GENERATION :  46 
RMSE : 	 0.4855162 
RMSE : 	 0.4854999 
GENERATION :  47 
RMSE : 	 0.4842729 
GENERATION :  48 
RMSE : 	 0.4823836 
GENERATION :  49 
GENERATION :  50 
GENERATION :  51 
GENERATION :  52 
GENERATION :  53 
GENERATION :  54 
RMSE : 	 0.4818847 
RMSE : 	 0.4806779 
GENERATION :  55 
GENERATION :  56 
GENERATION :  57 
GENERATION :  58 
RMSE : 	 0.4795918 
GENERATION :  59 
GENERATION :  60 
GENERATION :  61 
RMSE : 	 0.4787516 
GENERATION :  62 
GENERATION :  63 
GENERATION :  64 
GENERATION :  65 
GENERATION :  66 
GENERATION :  67 
RMSE : 	 0.4786849 
RMSE : 	 0.4786224 
GENERATION :  68 
RMSE : 	 0.4783122 
RMSE : 	 0.4768309 
GENERATION :  69 
GENERATION :  70 
GENERATION :  71 
RMSE : 	 0.4753705 
GENERATION :  72 
GENERATION :  73 
GENERATION :  74 
GENERATION :  75 
GENERATION :  76 
GENERATION :  77 
GENERATION :  78 
RMSE : 	 0.4734877 
GENERATION :  79 
GENERATION :  80 
GENERATION :  81 
GENERATION :  82 
GENERATION :  83 
GENERATION :  84 
RMSE : 	 0.4730346 
GENERATION :  85 
GENERATION :  86 
GENERATION :  87 
GENERATION :  88 
GENERATION :  89 
GENERATION :  90 
GENERATION :  91 
RMSE : 	 0.4728586 
GENERATION :  92 
GENERATION :  93 
GENERATION :  94 
GENERATION :  95 
GENERATION :  96 
GENERATION :  97 
GENERATION :  98 
RMSE : 	 0.4727886 
GENERATION :  99 
RMSE : 	 0.4715082 
GENERATION :  100 
RMSE : 	 0.4705873 
GENERATION :  101 
GENERATION :  102 
GENERATION :  103 
GENERATION :  104 
GENERATION :  105 
GENERATION :  106 
RMSE : 	 0.4703096 
GENERATION :  107 
RMSE : 	 0.4698986 
GENERATION :  108 
RMSE : 	 0.4698791 
GENERATION :  109 
GENERATION :  110 
GENERATION :  111 
GENERATION :  112 
GENERATION :  113 
RMSE : 	 0.4696178 
GENERATION :  114 
GENERATION :  115 
GENERATION :  116 
RMSE : 	 0.4695251 
GENERATION :  117 
GENERATION :  118 
GENERATION :  119 
GENERATION :  120 
GENERATION :  121 
GENERATION :  122 
RMSE : 	 0.4693812 
GENERATION :  123 
GENERATION :  124 
GENERATION :  125 
GENERATION :  126 
RMSE : 	 0.4692528 
GENERATION :  127 
GENERATION :  128 
GENERATION :  129 
RMSE : 	 0.4690064 
GENERATION :  130 
GENERATION :  131 
GENERATION :  132 
RMSE : 	 0.4685774 
GENERATION :  133 
GENERATION :  134 
GENERATION :  135 
GENERATION :  136 
GENERATION :  137 
GENERATION :  138 
RMSE : 	 0.4679597 
GENERATION :  139 
GENERATION :  140 
GENERATION :  141 
GENERATION :  142 
GENERATION :  143 
GENERATION :  144 
GENERATION :  145 
GENERATION :  146 
GENERATION :  147 
GENERATION :  148 
GENERATION :  149 
GENERATION :  150 
GENERATION :  151 
RMSE : 	 0.4678852 
GENERATION :  152 
GENERATION :  153 
GENERATION :  154 
RMSE : 	 0.4677446 
GENERATION :  155 
GENERATION :  156 
GENERATION :  157 
GENERATION :  158 
GENERATION :  159 
RMSE : 	 0.4676694 
GENERATION :  160 
GENERATION :  161 
GENERATION :  162 
GENERATION :  163 
GENERATION :  164 
RMSE : 	 0.4670222 
GENERATION :  165 
GENERATION :  166 
GENERATION :  167 
RMSE : 	 0.4668856 
GENERATION :  168 
GENERATION :  169 
GENERATION :  170 
RMSE : 	 0.4667367 
GENERATION :  171 
GENERATION :  172 
RMSE : 	 0.4665575 
GENERATION :  173 
GENERATION :  174 
GENERATION :  175 
GENERATION :  176 
RMSE : 	 0.465577 
GENERATION :  177 
GENERATION :  178 
GENERATION :  179 
RMSE : 	 0.4654401 
RMSE : 	 0.4653144 
GENERATION :  180 
GENERATION :  181 
GENERATION :  182 
GENERATION :  183 
GENERATION :  184 
GENERATION :  185 
GENERATION :  186 
GENERATION :  187 
RMSE : 	 0.465286 
GENERATION :  188 
GENERATION :  189 
GENERATION :  190 
GENERATION :  191 
GENERATION :  192 
GENERATION :  193 
GENERATION :  194 
GENERATION :  195 
RMSE : 	 0.465279 
GENERATION :  196 
RMSE : 	 0.4652771 
RMSE : 	 0.4652329 
GENERATION :  197 
GENERATION :  198 
GENERATION :  199 
GENERATION :  200 
FUZZY SYSTEM :
RULE (1) : Low is MF_1 AND Open is MF_2 AND High is MF_2 AND Adj.Close is MF_1 THEN X0.0 is MF_1 
RULE (2) : High is MF_1 AND Volume is MF_2 AND Adj.Close is MF_1 AND Open is MF_2 THEN X0.0 is MF_1 
RULE (3) : Close is MF_1 AND Volume is MF_1 AND High is MF_1 AND Close is MF_2 THEN X0.0 is MF_2 
DEFAULT RULE (4) : X0.0 is MF_2 

INPUT VARIABLES : 
Low : (27.2045385745773, 28.2215388264926)
Open : (25.863588092532, 26.7335516352393)
High : (26.0207023428055, 26.1015019318787)
Adj.Close : (26.3521422728011, 26.7177486952697)
Volume : (40508812.9312546, 45010473.4480288)
Close : (25.2403782431223, 29.6923057399783)

OUTPUT VARIABLES
X0.0 : (1.02814, 1.582615)
