Starting with random values in the given domains...
GENERATION :  1 
RMSE : 	 0.508863 
RMSE : 	 0.5078725 
RMSE : 	 0.5074299 
RMSE : 	 0.5025506 
RMSE : 	 0.499769 
RMSE : 	 0.4971756 
GENERATION :  2 
RMSE : 	 0.4969715 
GENERATION :  3 
RMSE : 	 0.4967765 
GENERATION :  4 
GENERATION :  5 
GENERATION :  6 
GENERATION :  7 
RMSE : 	 0.4963168 
GENERATION :  8 
GENERATION :  9 
RMSE : 	 0.4946141 
GENERATION :  10 
GENERATION :  11 
GENERATION :  12 
GENERATION :  13 
GENERATION :  14 
RMSE : 	 0.4935139 
GENERATION :  15 
GENERATION :  16 
GENERATION :  17 
GENERATION :  18 
GENERATION :  19 
RMSE : 	 0.4908586 
GENERATION :  20 
GENERATION :  21 
GENERATION :  22 
GENERATION :  23 
RMSE : 	 0.4907787 
RMSE : 	 0.4898082 
GENERATION :  24 
GENERATION :  25 
GENERATION :  26 
RMSE : 	 0.4896193 
GENERATION :  27 
GENERATION :  28 
GENERATION :  29 
GENERATION :  30 
GENERATION :  31 
GENERATION :  32 
GENERATION :  33 
RMSE : 	 0.4894299 
GENERATION :  34 
RMSE : 	 0.4893824 
GENERATION :  35 
RMSE : 	 0.4892417 
GENERATION :  36 
RMSE : 	 0.4890606 
RMSE : 	 0.4890034 
RMSE : 	 0.4886243 
RMSE : 	 0.4878462 
GENERATION :  37 
RMSE : 	 0.4875789 
GENERATION :  38 
RMSE : 	 0.4874308 
GENERATION :  39 
GENERATION :  40 
GENERATION :  41 
RMSE : 	 0.4873116 
GENERATION :  42 
RMSE : 	 0.487235 
GENERATION :  43 
RMSE : 	 0.4866217 
GENERATION :  44 
RMSE : 	 0.4857105 
GENERATION :  45 
GENERATION :  46 
GENERATION :  47 
GENERATION :  48 
RMSE : 	 0.4856813 
RMSE : 	 0.4855994 
GENERATION :  49 
GENERATION :  50 
GENERATION :  51 
RMSE : 	 0.4851441 
GENERATION :  52 
GENERATION :  53 
GENERATION :  54 
GENERATION :  55 
RMSE : 	 0.4846932 
GENERATION :  56 
RMSE : 	 0.4843767 
GENERATION :  57 
GENERATION :  58 
GENERATION :  59 
GENERATION :  60 
GENERATION :  61 
RMSE : 	 0.4825669 
GENERATION :  62 
GENERATION :  63 
GENERATION :  64 
GENERATION :  65 
GENERATION :  66 
GENERATION :  67 
GENERATION :  68 
RMSE : 	 0.4824653 
GENERATION :  69 
GENERATION :  70 
GENERATION :  71 
GENERATION :  72 
RMSE : 	 0.482408 
GENERATION :  73 
GENERATION :  74 
GENERATION :  75 
RMSE : 	 0.4819193 
GENERATION :  76 
GENERATION :  77 
GENERATION :  78 
RMSE : 	 0.4817746 
GENERATION :  79 
GENERATION :  80 
GENERATION :  81 
RMSE : 	 0.4813873 
GENERATION :  82 
GENERATION :  83 
GENERATION :  84 
GENERATION :  85 
GENERATION :  86 
GENERATION :  87 
GENERATION :  88 
GENERATION :  89 
GENERATION :  90 
RMSE : 	 0.4809769 
GENERATION :  91 
GENERATION :  92 
GENERATION :  93 
GENERATION :  94 
GENERATION :  95 
RMSE : 	 0.4806114 
GENERATION :  96 
GENERATION :  97 
GENERATION :  98 
RMSE : 	 0.4803686 
GENERATION :  99 
GENERATION :  100 
GENERATION :  101 
RMSE : 	 0.4800616 
GENERATION :  102 
GENERATION :  103 
GENERATION :  104 
GENERATION :  105 
RMSE : 	 0.4799121 
GENERATION :  106 
GENERATION :  107 
RMSE : 	 0.4798501 
GENERATION :  108 
GENERATION :  109 
GENERATION :  110 
GENERATION :  111 
GENERATION :  112 
GENERATION :  113 
GENERATION :  114 
RMSE : 	 0.4796932 
GENERATION :  115 
GENERATION :  116 
RMSE : 	 0.4796889 
RMSE : 	 0.4776538 
GENERATION :  117 
GENERATION :  118 
GENERATION :  119 
GENERATION :  120 
GENERATION :  121 
GENERATION :  122 
GENERATION :  123 
GENERATION :  124 
GENERATION :  125 
GENERATION :  126 
GENERATION :  127 
GENERATION :  128 
GENERATION :  129 
GENERATION :  130 
GENERATION :  131 
RMSE : 	 0.4775555 
GENERATION :  132 
RMSE : 	 0.4770912 
GENERATION :  133 
RMSE : 	 0.4767618 
RMSE : 	 0.476155 
GENERATION :  134 
GENERATION :  135 
RMSE : 	 0.4759951 
GENERATION :  136 
GENERATION :  137 
GENERATION :  138 
GENERATION :  139 
RMSE : 	 0.4759537 
GENERATION :  140 
GENERATION :  141 
RMSE : 	 0.4757502 
GENERATION :  142 
GENERATION :  143 
GENERATION :  144 
GENERATION :  145 
GENERATION :  146 
GENERATION :  147 
RMSE : 	 0.4753126 
GENERATION :  148 
GENERATION :  149 
GENERATION :  150 
GENERATION :  151 
RMSE : 	 0.4747676 
GENERATION :  152 
GENERATION :  153 
GENERATION :  154 
GENERATION :  155 
GENERATION :  156 
GENERATION :  157 
GENERATION :  158 
GENERATION :  159 
RMSE : 	 0.4746426 
GENERATION :  160 
GENERATION :  161 
GENERATION :  162 
GENERATION :  163 
RMSE : 	 0.4746379 
GENERATION :  164 
RMSE : 	 0.4746103 
GENERATION :  165 
GENERATION :  166 
RMSE : 	 0.4742 
GENERATION :  167 
GENERATION :  168 
GENERATION :  169 
GENERATION :  170 
RMSE : 	 0.4741332 
GENERATION :  171 
GENERATION :  172 
GENERATION :  173 
GENERATION :  174 
GENERATION :  175 
RMSE : 	 0.4741056 
GENERATION :  176 
GENERATION :  177 
RMSE : 	 0.4739649 
GENERATION :  178 
RMSE : 	 0.473585 
GENERATION :  179 
GENERATION :  180 
GENERATION :  181 
GENERATION :  182 
GENERATION :  183 
RMSE : 	 0.473584 
GENERATION :  184 
RMSE : 	 0.473418 
GENERATION :  185 
GENERATION :  186 
GENERATION :  187 
GENERATION :  188 
GENERATION :  189 
RMSE : 	 0.4734131 
GENERATION :  190 
GENERATION :  191 
GENERATION :  192 
GENERATION :  193 
GENERATION :  194 
GENERATION :  195 
RMSE : 	 0.4734129 
GENERATION :  196 
GENERATION :  197 
RMSE : 	 0.4733179 
RMSE : 	 0.4727364 
GENERATION :  198 
GENERATION :  199 
GENERATION :  200 
FUZZY SYSTEM :
RULE (1) : Volume is MF_2 AND Open is MF_2 AND Volume is MF_2 AND Volume is MF_2 THEN X0.0 is MF_1 
RULE (2) : High is MF_2 AND Close is MF_1 AND High is MF_2 AND Volume is MF_2 THEN X0.0 is MF_1 
RULE (3) : Open is MF_2 AND Low is MF_2 AND Close is MF_1 AND Close is MF_1 THEN X0.0 is MF_1 
DEFAULT RULE (4) : X0.0 is MF_2 

INPUT VARIABLES : 
Volume : (90275787.9242887, 95160684.8638736)
Open : (26.4752041443065, 27.4906858962215)
High : (29.6588429565402, 29.8071389389504)
Close : (29.107674808586, 31.337573286714)
Low : (22.7508592914278, 23.4527408929029)

OUTPUT VARIABLES
X0.0 : (1.004058, 1.539299)
