Starting with random values in the given domains...
GENERATION :  1 
RMSE : 	 0.4136925 
RMSE : 	 0.4132916 
RMSE : 	 0.4129246 
RMSE : 	 0.4079241 
RMSE : 	 0.4071552 
RMSE : 	 0.403006 
GENERATION :  2 
RMSE : 	 0.3974447 
GENERATION :  3 
RMSE : 	 0.3888405 
GENERATION :  4 
GENERATION :  5 
RMSE : 	 0.3739663 
GENERATION :  6 
GENERATION :  7 
GENERATION :  8 
GENERATION :  9 
GENERATION :  10 
GENERATION :  11 
RMSE : 	 0.372222 
GENERATION :  12 
RMSE : 	 0.3605937 
GENERATION :  13 
RMSE : 	 0.3486335 
GENERATION :  14 
GENERATION :  15 
GENERATION :  16 
GENERATION :  17 
GENERATION :  18 
RMSE : 	 0.3439646 
GENERATION :  19 
GENERATION :  20 
GENERATION :  21 
GENERATION :  22 
GENERATION :  23 
RMSE : 	 0.3312079 
GENERATION :  24 
GENERATION :  25 
GENERATION :  26 
GENERATION :  27 
GENERATION :  28 
GENERATION :  29 
GENERATION :  30 
RMSE : 	 0.328579 
GENERATION :  31 
GENERATION :  32 
GENERATION :  33 
GENERATION :  34 
GENERATION :  35 
GENERATION :  36 
RMSE : 	 0.3280634 
RMSE : 	 0.3265997 
GENERATION :  37 
RMSE : 	 0.3255562 
RMSE : 	 0.3253656 
GENERATION :  38 
GENERATION :  39 
RMSE : 	 0.3229534 
GENERATION :  40 
RMSE : 	 0.3203791 
GENERATION :  41 
GENERATION :  42 
RMSE : 	 0.3120307 
GENERATION :  43 
GENERATION :  44 
GENERATION :  45 
GENERATION :  46 
GENERATION :  47 
GENERATION :  48 
RMSE : 	 0.3106108 
GENERATION :  49 
RMSE : 	 0.308284 
GENERATION :  50 
GENERATION :  51 
RMSE : 	 0.3065919 
GENERATION :  52 
RMSE : 	 0.3059879 
GENERATION :  53 
GENERATION :  54 
GENERATION :  55 
RMSE : 	 0.3047365 
GENERATION :  56 
GENERATION :  57 
GENERATION :  58 
RMSE : 	 0.3001204 
GENERATION :  59 
RMSE : 	 0.2997173 
RMSE : 	 0.2986886 
GENERATION :  60 
GENERATION :  61 
GENERATION :  62 
GENERATION :  63 
GENERATION :  64 
RMSE : 	 0.2934292 
GENERATION :  65 
RMSE : 	 0.2895448 
GENERATION :  66 
GENERATION :  67 
GENERATION :  68 
GENERATION :  69 
GENERATION :  70 
GENERATION :  71 
RMSE : 	 0.2880793 
GENERATION :  72 
RMSE : 	 0.2851999 
GENERATION :  73 
GENERATION :  74 
GENERATION :  75 
RMSE : 	 0.2807475 
GENERATION :  76 
GENERATION :  77 
GENERATION :  78 
GENERATION :  79 
GENERATION :  80 
RMSE : 	 0.2742714 
GENERATION :  81 
GENERATION :  82 
GENERATION :  83 
GENERATION :  84 
GENERATION :  85 
GENERATION :  86 
GENERATION :  87 
GENERATION :  88 
GENERATION :  89 
GENERATION :  90 
GENERATION :  91 
RMSE : 	 0.2737626 
GENERATION :  92 
RMSE : 	 0.2704952 
RMSE : 	 0.2701183 
GENERATION :  93 
GENERATION :  94 
GENERATION :  95 
GENERATION :  96 
RMSE : 	 0.2700981 
GENERATION :  97 
GENERATION :  98 
RMSE : 	 0.2684851 
GENERATION :  99 
GENERATION :  100 
RMSE : 	 0.2647044 
GENERATION :  101 
GENERATION :  102 
GENERATION :  103 
GENERATION :  104 
GENERATION :  105 
GENERATION :  106 
RMSE : 	 0.2631703 
GENERATION :  107 
GENERATION :  108 
GENERATION :  109 
GENERATION :  110 
GENERATION :  111 
GENERATION :  112 
GENERATION :  113 
GENERATION :  114 
GENERATION :  115 
GENERATION :  116 
RMSE : 	 0.2627968 
GENERATION :  117 
GENERATION :  118 
RMSE : 	 0.2627875 
GENERATION :  119 
RMSE : 	 0.2613826 
GENERATION :  120 
GENERATION :  121 
GENERATION :  122 
GENERATION :  123 
GENERATION :  124 
GENERATION :  125 
RMSE : 	 0.2596142 
GENERATION :  126 
GENERATION :  127 
GENERATION :  128 
GENERATION :  129 
GENERATION :  130 
GENERATION :  131 
GENERATION :  132 
GENERATION :  133 
GENERATION :  134 
GENERATION :  135 
RMSE : 	 0.257646 
GENERATION :  136 
GENERATION :  137 
GENERATION :  138 
GENERATION :  139 
GENERATION :  140 
GENERATION :  141 
GENERATION :  142 
RMSE : 	 0.255502 
GENERATION :  143 
GENERATION :  144 
GENERATION :  145 
GENERATION :  146 
GENERATION :  147 
RMSE : 	 0.2538064 
GENERATION :  148 
GENERATION :  149 
GENERATION :  150 
GENERATION :  151 
GENERATION :  152 
GENERATION :  153 
GENERATION :  154 
GENERATION :  155 
GENERATION :  156 
GENERATION :  157 
RMSE : 	 0.2528276 
GENERATION :  158 
GENERATION :  159 
RMSE : 	 0.2493916 
GENERATION :  160 
GENERATION :  161 
GENERATION :  162 
GENERATION :  163 
GENERATION :  164 
GENERATION :  165 
GENERATION :  166 
GENERATION :  167 
GENERATION :  168 
GENERATION :  169 
GENERATION :  170 
GENERATION :  171 
GENERATION :  172 
RMSE : 	 0.2458 
GENERATION :  173 
GENERATION :  174 
GENERATION :  175 
GENERATION :  176 
GENERATION :  177 
GENERATION :  178 
GENERATION :  179 
GENERATION :  180 
GENERATION :  181 
GENERATION :  182 
GENERATION :  183 
GENERATION :  184 
RMSE : 	 0.2449447 
GENERATION :  185 
GENERATION :  186 
GENERATION :  187 
GENERATION :  188 
GENERATION :  189 
GENERATION :  190 
GENERATION :  191 
GENERATION :  192 
GENERATION :  193 
GENERATION :  194 
GENERATION :  195 
RMSE : 	 0.2422991 
GENERATION :  196 
GENERATION :  197 
GENERATION :  198 
GENERATION :  199 
GENERATION :  200 
FUZZY SYSTEM :
RULE (1) : High is MF_1 AND High is MF_1 AND Close is MF_1 AND Volume is MF_2 THEN X0.0 is MF_2 
RULE (2) : Open is MF_1 AND Close is MF_2 AND Volume is MF_1 AND Volume is MF_2 THEN X0.0 is MF_2 
RULE (3) : Low is MF_2 AND High is MF_1 AND Close is MF_1 AND Close is MF_2 THEN X0.0 is MF_2 
DEFAULT RULE (4) : X0.0 is MF_1 

INPUT VARIABLES : 
High : (35.2114064377826, 37.6569415531703)
Close : (34.2052774812537, 36.423336200926)
Volume : (24674340.7770906, 25132098.6752964)
Open : (34.7441515056463, 34.9785656803846)
Low : (31.2105769859045, 31.8866899399669)

OUTPUT VARIABLES
X0.0 : (1.00321, 1.973451)
